 4.0051e+00   9.3909e-01  -7.8325e+00
 3.3695e+00   1.9927e+00  -7.9168e+00
 3.6422e+00   1.7212e+00  -7.9649e+00
-1.7635e+00   2.4661e+00  -7.8419e+00
 3.0007e+00   2.2410e+00  -7.8905e+00
-9.4883e-01   2.6322e+00  -7.7677e+00
 1.2969e+00   2.6767e+00  -8.0364e+00
 1.8921e+00   2.5785e+00  -8.0957e+00
 6.7211e-01   2.7294e+00  -7.9346e+00
 3.8481e+00   1.4069e+00  -8.1497e+00
-3.6188e-03   2.7100e+00  -8.2282e+00
-4.4836e+00   9.9336e-01  -8.7350e+00
 4.0185e+00   4.8632e-01  -8.3627e+00
-4.2943e+00   1.2478e+00  -8.6418e+00
-3.3169e+00   1.8944e+00  -8.5154e+00
-2.7066e+00   2.1645e+00  -8.6078e+00
 2.4745e+00   2.4198e+00  -8.4017e+00
 3.4634e+00  -9.3831e-01  -8.8950e+00
 3.7012e+00  -5.7295e-01  -8.9655e+00
-4.0398e+00  -3.2770e-01  -9.0122e+00
 3.8935e+00  -9.3560e-02  -8.5573e+00
-4.5208e+00   3.7918e-03  -9.3815e+00
-4.6275e+00   7.8102e-01  -8.8725e+00
-3.9493e+00   1.5763e+00  -8.7170e+00
 2.3885e+00  -2.1662e+00  -9.3837e+00
 3.0296e+00  -1.5108e+00  -9.1759e+00
-4.7045e+00   3.5361e-01  -9.1918e+00
-2.4657e+00   2.2391e+00  -9.3248e+00
 1.0196e+00  -3.0230e+00  -9.6768e+00
-3.6778e+00  -9.2431e-01  -9.4848e+00
-1.7318e-02  -3.2226e+00  -9.6783e+00
-7.9327e-01  -3.0990e+00  -9.8306e+00
-1.5130e+00  -2.8127e+00  -9.7389e+00
 4.7087e-01  -3.1712e+00  -9.8314e+00
-2.0924e+00  -2.4765e+00  -9.5416e+00
 1.6321e+00  -2.7023e+00  -9.7821e+00
-2.3073e+00  -2.3269e+00  -9.8368e+00
-3.0809e+00  -1.6254e+00  -9.6358e+00