1221	1892
1281	1894
1339	1890
1411	1888
1485	1900
1539	1908
1577	1926
1613	1946
1653	1966
1687	1984
1725	1998
1769	2016
1825	2042
1873	2074
1911	2094
1943	2118
1967	2144
1989	2170
2023	2198
2047	2228
2063	2256
2075	2284
2101	2348
2115	2458
2107	2552
2081	2630
2047	2690
2009	2744
1965	2800
1913	2852
1869	2894
1801	2944
1739	2978
1665	3020
1603	3040
1521	3044
1439	3046
1353	3036
1325	3024
1303	2996
1301	2952
1303	2900
1309	2860
1305	2800
1301	2758
1293	2734
1283	2728
1275	2728
1265	2728
