1166	1784
1230	1776
1280	1780
1346	1786
1424	1794
1498	1796
1503	1797
1508	1796
1513	1796
1518	1796
1523	1796
1528	1795
1533	1795
1538	1795
1543	1795
1548	1794
1553	1793
1558	1793
1563	1793
1568	1795
1572	1798
1577	1795
1582	1794
1587	1795
1592	1796
1597	1796
1602	1797
1607	1797
1612	1799
1617	1801
1622	1802
1627	1803
1632	1805
1637	1807
1642	1810
1647	1812
1652	1815
1657	1817
1661	1820
1664	1822
1669	1822
1674	1823
1679	1825
1684	1826
1689	1828
1694	1830
1699	1831
1704	1833
1709	1834
1714	1836
1719	1838
1724	1839
1729	1841
1734	1842
1739	1844
1744	1846
1749	1848
1754	1849
1759	1852
1764	1856
1769	1855
1774	1856
1779	1858
1784	1860
1789	1863
1794	1866
1799	1869
1804	1871
1809	1875
1814	1878
1819	1883
1824	1886
1852	1928
1882	1942
1918	1950
1923	1948
1928	1948
1933	1949
1938	1950
1943	1950
1948	1951
1953	1953
1958	1955
1963	1958
1968	1960
1973	1962
1978	1965
1983	1969
1988	1971
1993	1975
1998	1979
2003	1983
2008	1988
2012	1992
2014	1994
2019	1996
2024	2000
2029	2004
2034	2009
2039	2014
2044	2019
2049	2024
2054	2029
2059	2034
2064	2039
2069	2044
2074	2049
2079	2054
2084	2059
2089	2064
2094	2069
2099	2074
2104	2079
2109	2084
2114	2089
2119	2094
2124	2099
2128	2104
2130	2108
2135	2110
2140	2115
2145	2120
2150	2125
2155	2130
2160	2135
2165	2140
2170	2145
2175	2150
2180	2155
2182	2160
2187	2164
2192	2169
2196	2174
2200	2179
2205	2184
2209	2189
2213	2194
2217	2199
2221	2204
2224	2209
2227	2214
2231	2219
2234	2224
2237	2229
2240	2234
2243	2239
2244	2244
2248	2249
2251	2254
2253	2259
2255	2264
2258	2269
2260	2274
2263	2279
2265	2284
2266	2289
2268	2294
2271	2299
2272	2304
2274	2309
2275	2314
2277	2319
2279	2324
2281	2329
2282	2334
2284	2339
2285	2344
2284	2348
2287	2353
2289	2358
2291	2363
2292	2368
2293	2373
2295	2378
2296	2383
2297	2388
2298	2393
2300	2398
2301	2403
2302	2408
2302	2413
2303	2418
2305	2423
2306	2428
2306	2433
2307	2438
2308	2443
2310	2448
2310	2453
2311	2458
2312	2463
2312	2468
2313	2473
2314	2478
2314	2483
2315	2488
2316	2493
2316	2498
2315	2502
2314	2504
2317	2509
2318	2514
2319	2519
2320	2524
2320	2529
2320	2534
2321	2539
2321	2544
2321	2549
2321	2554
2321	2559
2321	2564
2321	2569
2321	2574
2321	2579
2321	2584
2321	2589
2321	2594
2320	2599
2320	2604
2320	2609
2319	2614
2318	2619
2318	2624
2317	2629
2316	2634
2315	2639
2314	2644
2313	2649
2312	2654
2311	2659
2310	2664
2308	2669
2307	2674
2306	2679
2304	2684
2303	2689
2302	2692
2301	2697
2300	2702
2298	2707
2296	2712
2295	2717
2292	2722
2290	2727
2289	2732
2287	2737
2285	2742
2282	2747
2280	2752
2278	2757
2276	2762
2273	2767
2271	2772
2268	2777
2266	2782
2263	2787
2261	2792
2258	2797
2255	2802
2252	2807
2249	2812
2246	2817
2242	2822
2238	2827
2233	2832
2230	2836
2225	2841
2220	2846
2215	2850
2210	2855
2207	2860
2203	2865
2199	2870
2195	2875
2191	2880
2187	2885
2182	2890
2178	2895
2173	2900
2169	2905
2164	2910
2159	2915
2154	2920
2149	2925
2144	2930
2140	2935
2140	2940
2138	2945
2133	2950
2128	2955
2123	2960
2118	2965
2113	2969
2108	2972
2103	2976
2098	2980
2093	2984
2088	2988
2083	2991
2078	2995
2073	2998
2068	3002
2063	3005
2058	3008
2053	3011
2048	3014
2043	3018
2038	3022
2034	3026
2029	3026
2024	3029
2019	3031
2014	3033
2009	3036
2004	3038
1999	3041
1994	3043
1989	3045
1984	3047
1979	3049
1974	3052
1969	3054
1964	3056
1959	3058
1954	3060
1949	3062
1944	3064
1939	3067
1934	3069
1929	3071
1924	3074
1919	3076
1914	3078
1909	3080
1906	3080
1901	3084
1896	3087
1891	3089
1886	3092
1881	3095
1876	3097
1871	3100
1866	3102
1861	3105
1856	3108
1851	3110
1846	3113
1841	3115
1836	3118
1831	3120
1826	3123
1821	3126
1816	3128
1811	3130
1806	3132
1801	3134
1798	3134
1793	3138
1788	3141
1783	3143
1778	3145
1773	3147
1768	3148
1763	3150
1758	3152
1753	3154
1748	3155
1743	3157
1738	3159
1733	3161
1728	3162
1723	3163
1718	3165
1713	3166
1708	3168
1703	3170
1698	3172
1693	3173
1688	3174
1683	3175
1680	3176
1675	3178
1670	3180
1665	3181
1660	3183
1655	3184
1650	3185
1645	3187
1640	3188
1635	3189
1630	3190
1625	3191
1620	3192
1615	3193
1610	3194
1605	3195
1600	3196
1595	3197
1590	3198
1585	3199
1580	3200
1575	3201
1570	3202
1565	3203
1560	3203
1555	3203
1550	3204
1546	3206
1541	3205
1536	3205
1531	3206
1526	3206
1521	3206
1516	3207
1511	3207
1506	3207
1501	3207
1496	3207
1491	3207
1486	3207
1481	3207
1476	3207
1471	3207
1466	3206
1461	3205
1456	3205
1451	3204
1446	3203
1441	3202
1438	3200
1433	3201
1428	3201
1423	3200
1418	3199
1413	3198
1408	3197
1403	3196
1398	3194
1393	3193
1388	3192
1383	3190
1378	3188
1373	3186
1368	3185
1363	3183
1358	3180
1353	3177
1349	3173
1346	3170
1341	3172
1336	3171
1331	3168
1326	3165
1321	3163
1316	3160
1311	3157
1306	3154
1301	3150
1296	3147
1292	3146
1291	3141
1288	3136
1286	3131
1284	3126
1283	3121
1282	3116
1281	3111
1280	3106
1279	3101
1279	3096
1278	3091
1278	3086
1279	3081
1280	3078
1276	2990
1284	2910
1286	2864
1288	2859
1288	2854
1288	2849
1288	2844
1288	2839
1288	2834
1287	2829
1287	2824
1287	2819
1287	2814
1286	2809
1285	2804
1284	2799
1283	2794
1280	2790
1278	2788
1276	2768
1271	2763
1267	2759
1264	2756
1259	2752
1254	2753
1250	2756
1238	2754
1216	2756
