1239	1971
1299	1969
1345	1965
1397	1971
1445	1985
1497	2003
1553	2027
1623	2055
1679	2081
1749	2115
1817	2149
1885	2185
1949	2227
2005	2271
2043	2307
2081	2357
2109	2417
2127	2483
2135	2557
2133	2627
2129	2687
2103	2759
2073	2823
2047	2871
1997	2931
1943	2995
1883	3051
1827	3103
1761	3143
1697	3171
1621	3211
1557	3229
1475	3239
1411	3235
1373	3227
1351	3207
1333	3161
1329	3097
1329	3043
1325	2983
1323	2941
1321	2907
1317	2893
1307	2887
1297	2887
1281	2887
