1244	1893
1254	1893
1268	1893
1278	1893
1354	1891
1448	1903
1520	1921
1606	1949
1684	1977
1722	1999
1766	2025
1812	2043
1856	2057
1922	2077
1992	2095
2050	2121
2112	2147
2144	2167
2190	2211
2230	2251
2272	2297
2318	2347
2364	2415
2388	2455
2404	2517
2406	2575
2388	2643
2362	2709
2314	2799
2264	2865
2212	2923
2164	2963
2078	3019
1978	3079
1898	3111
1826	3131
1752	3147
1684	3161
1610	3175
1548	3183
1480	3185
1420	3181
1364	3173
1318	3161
1292	3151
1274	3125
1270	3083
1264	3041
1268	2987
1270	2947
1274	2911
1278	2871
1284	2831
1286	2793
1284	2757
1278	2733
1268	2731
1254	2731
1244	2731
